Clustering
…
In the paragraphs above we motivated minimizing WCSS though a heuristic argument. There is actually a statistical interpretation to minimizing WCSS. Suppose each data point is generated independently from one of K Gaussian distributions where each of the K Gaussian distributions has a different mean but identity covariance matrix. It then turns out that finding the maximum likelihood solution to this problem is exactly minimizing the WCSS. This is a special case of the more general gaussian mixture model.

What happens when you change K?

See this shiny app to see what happens when we change \(K\).

Code

You can see a simple implementation of K-means here. There are a number of bells and whistles that you might want to add to the K-means algorithm (e.g.see r documentation). K-means is implemented well in the stat package which comes with R.

K-means works on a numerical data matrix

data

## # A tibble: 400 x 2
##         x1     x2
##      <dbl>  <dbl>
##  1  2.15   -0.479
##  2 -0.0879  1.62 
##  3  1.77   -0.151
##  4  0.619   1.26 
##  5  1.08   -0.546
##  6  0.857   0.386
##  7  1.76    0.381
##  8  2.21   -2.47 
##  9  0.964   0.387
## 10 -0.609   1.73 
## # ... with 390 more rows
…
